%!PS-Adobe-2.0 EPSF-2.0
%%Title: /home/egor/gitStorage/latex/pdf_projects/mht.dia
%%Creator: Dia v0.97.2
%%CreationDate: Mon Sep  5 10:22:54 2016
%%For: egor
%%Orientation: Portrait
%%Magnification: 1.0000
%%BoundingBox: 0 0 2302 588
%%BeginSetup
%%EndSetup
%%EndComments
%%BeginProlog
[ /.notdef /.notdef /.notdef /.notdef /.notdef /.notdef /.notdef /.notdef /.notdef /.notdef
/.notdef /.notdef /.notdef /.notdef /.notdef /.notdef /.notdef /.notdef /.notdef /.notdef
/.notdef /.notdef /.notdef /.notdef /.notdef /.notdef /.notdef /.notdef /.notdef /.notdef
/.notdef /.notdef /space /exclam /quotedbl /numbersign /dollar /percent /ampersand /quoteright
/parenleft /parenright /asterisk /plus /comma /hyphen /period /slash /zero /one
/two /three /four /five /six /seven /eight /nine /colon /semicolon
/less /equal /greater /question /at /A /B /C /D /E
/F /G /H /I /J /K /L /M /N /O
/P /Q /R /S /T /U /V /W /X /Y
/Z /bracketleft /backslash /bracketright /asciicircum /underscore /quoteleft /a /b /c
/d /e /f /g /h /i /j /k /l /m
/n /o /p /q /r /s /t /u /v /w
/x /y /z /braceleft /bar /braceright /asciitilde /.notdef /.notdef /.notdef
/.notdef /.notdef /.notdef /.notdef /.notdef /.notdef /.notdef /.notdef /.notdef /.notdef
/.notdef /.notdef /.notdef /.notdef /.notdef /.notdef /.notdef /.notdef /.notdef /.notdef
/.notdef /.notdef /.notdef /.notdef /.notdef /.notdef /.notdef /.notdef /.notdef /.notdef
/space /exclamdown /cent /sterling /currency /yen /brokenbar /section /dieresis /copyright
/ordfeminine /guillemotleft /logicalnot /hyphen /registered /macron /degree /plusminus /twosuperior /threesuperior
/acute /mu /paragraph /periodcentered /cedilla /onesuperior /ordmasculine /guillemotright /onequarter /onehalf
/threequarters /questiondown /Agrave /Aacute /Acircumflex /Atilde /Adieresis /Aring /AE /Ccedilla
/Egrave /Eacute /Ecircumflex /Edieresis /Igrave /Iacute /Icircumflex /Idieresis /Eth /Ntilde
/Ograve /Oacute /Ocircumflex /Otilde /Odieresis /multiply /Oslash /Ugrave /Uacute /Ucircumflex
/Udieresis /Yacute /Thorn /germandbls /agrave /aacute /acircumflex /atilde /adieresis /aring
/ae /ccedilla /egrave /eacute /ecircumflex /edieresis /igrave /iacute /icircumflex /idieresis
/eth /ntilde /ograve /oacute /ocircumflex /otilde /odieresis /divide /oslash /ugrave
/uacute /ucircumflex /udieresis /yacute /thorn /ydieresis] /isolatin1encoding exch def
/cp {closepath} bind def
/c {curveto} bind def
/f {fill} bind def
/a {arc} bind def
/ef {eofill} bind def
/ex {exch} bind def
/gr {grestore} bind def
/gs {gsave} bind def
/sa {save} bind def
/rs {restore} bind def
/l {lineto} bind def
/m {moveto} bind def
/rm {rmoveto} bind def
/n {newpath} bind def
/s {stroke} bind def
/sh {show} bind def
/slc {setlinecap} bind def
/slj {setlinejoin} bind def
/slw {setlinewidth} bind def
/srgb {setrgbcolor} bind def
/rot {rotate} bind def
/sc {scale} bind def
/sd {setdash} bind def
/ff {findfont} bind def
/sf {setfont} bind def
/scf {scalefont} bind def
/sw {stringwidth pop} bind def
/tr {translate} bind def

/ellipsedict 8 dict def
ellipsedict /mtrx matrix put
/ellipse
{ ellipsedict begin
   /endangle exch def
   /startangle exch def
   /yrad exch def
   /xrad exch def
   /y exch def
   /x exch def   /savematrix mtrx currentmatrix def
   x y tr xrad yrad sc
   0 0 1 startangle endangle arc
   savematrix setmatrix
   end
} def

/mergeprocs {
dup length
3 -1 roll
dup
length
dup
5 1 roll
3 -1 roll
add
array cvx
dup
3 -1 roll
0 exch
putinterval
dup
4 2 roll
putinterval
} bind def
/dpi_x 300 def
/dpi_y 300 def
/conicto {
    /to_y exch def
    /to_x exch def
    /conic_cntrl_y exch def
    /conic_cntrl_x exch def
    currentpoint
    /p0_y exch def
    /p0_x exch def
    /p1_x p0_x conic_cntrl_x p0_x sub 2 3 div mul add def
    /p1_y p0_y conic_cntrl_y p0_y sub 2 3 div mul add def
    /p2_x p1_x to_x p0_x sub 1 3 div mul add def
    /p2_y p1_y to_y p0_y sub 1 3 div mul add def
    p1_x p1_y p2_x p2_y to_x to_y curveto
} bind def
/start_ol { gsave 1.1 dpi_x div dup scale} bind def
/end_ol { closepath fill grestore } bind def
28.346000 -28.346000 scale
17.365300 -27.215415 translate
%%EndProlog


1.000000 1.000000 1.000000 srgb
n -2.124680 16.467715 1.449370 1.322839 0 360 ellipse f
0.100000 slw
[] 0 sd
[] 0 sd
0 slj
0.000000 0.000000 0.000000 srgb
n -2.124680 16.467715 1.449370 1.322839 0 360 ellipse cp s
gsave -2.489680 16.817665 translate 0.035278 -0.035278 scale
start_ol
2750 5696 moveto
2081 5696 1744 5056 conicto
1408 4417 1408 3134 conicto
1408 1855 1744 1215 conicto
2081 576 2750 576 conicto
3423 576 3759 1215 conicto
4096 1855 4096 3134 conicto
4096 4417 3759 5056 conicto
3423 5696 2750 5696 conicto
2752 6400 moveto
3810 6400 4369 5563 conicto
4928 4727 4928 3134 conicto
4928 1545 4369 708 conicto
3810 -128 2752 -128 conicto
1694 -128 1135 708 conicto
576 1545 576 3134 conicto
576 4727 1135 5563 conicto
1694 6400 2752 6400 conicto
end_ol grestore 
1.000000 1.000000 1.000000 srgb
n 16.197767 16.398988 1.402395 1.338011 0 360 ellipse f
0.100000 slw
[] 0 sd
[] 0 sd
0 slj
0.000000 0.000000 0.000000 srgb
n 16.197767 16.398988 1.402395 1.338011 0 360 ellipse cp s
gsave 15.832767 16.748938 translate 0.035278 -0.035278 scale
start_ol
1088 704 moveto
2496 704 lineto
2496 5568 lineto
960 5248 lineto
960 5952 lineto
2472 6272 lineto
3328 6272 lineto
3328 704 lineto
4736 704 lineto
4736 0 lineto
1088 0 lineto
1088 704 lineto
end_ol grestore 
1.000000 1.000000 1.000000 srgb
n 52.887367 16.432088 1.402395 1.338011 0 360 ellipse f
0.100000 slw
[] 0 sd
[] 0 sd
0 slj
0.000000 0.000000 0.000000 srgb
n 52.887367 16.432088 1.402395 1.338011 0 360 ellipse cp s
gsave 52.522367 16.782038 translate 0.035278 -0.035278 scale
start_ol
3529 3390 moveto
4127 3259 4463 2845 conicto
4800 2432 4800 1825 conicto
4800 893 4156 382 conicto
3513 -128 2329 -128 conicto
1931 -128 1510 -48 conicto
1089 32 640 192 conicto
640 1024 lineto
997 802 1423 689 conicto
1849 576 2313 576 conicto
3121 576 3544 894 conicto
3968 1212 3968 1817 conicto
3968 2377 3574 2692 conicto
3181 3008 2480 3008 conicto
1728 3008 lineto
1728 3712 lineto
2514 3712 lineto
3158 3712 3499 3963 conicto
3840 4215 3840 4689 conicto
3840 5176 3488 5436 conicto
3136 5696 2480 5696 conicto
2127 5696 1722 5618 conicto
1317 5540 832 5376 conicto
832 6144 lineto
1321 6272 1748 6336 conicto
2176 6400 2554 6400 conicto
3532 6400 4102 5960 conicto
4672 5520 4672 4771 conicto
4672 4249 4374 3889 conicto
4077 3529 3529 3390 conicto
end_ol grestore 
1.000000 1.000000 1.000000 srgb
n 32.822867 16.382388 1.402395 1.338011 0 360 ellipse f
0.100000 slw
[] 0 sd
[] 0 sd
0 slj
0.000000 0.000000 0.000000 srgb
n 32.822867 16.382388 1.402395 1.338011 0 360 ellipse cp s
gsave 32.457867 16.732338 translate 0.035278 -0.035278 scale
start_ol
1689 704 moveto
4642 704 lineto
4642 0 lineto
640 0 lineto
640 704 lineto
1129 1207 1974 2055 conicto
2819 2904 3036 3149 conicto
3448 3610 3612 3929 conicto
3776 4249 3776 4558 conicto
3776 5061 3423 5378 conicto
3070 5696 2504 5696 conicto
2103 5696 1657 5553 conicto
1211 5410 704 5120 conicto
704 5952 lineto
1216 6174 1661 6287 conicto
2106 6400 2475 6400 conicto
3449 6400 4028 5910 conicto
4608 5421 4608 4603 conicto
4608 4214 4463 3866 conicto
4319 3518 3938 3046 conicto
3833 2923 3272 2339 conicto
2711 1755 1689 704 conicto
end_ol grestore 
1.000000 1.000000 1.000000 srgb
n 23.449974 8.049997 3.019543 1.509771 0 360 ellipse f
0.100000 slw
[] 0 sd
[] 0 sd
0 slj
0.000000 0.000000 0.000000 srgb
n 23.449974 8.049997 3.019543 1.509771 0 360 ellipse cp s
gsave 21.813724 8.399947 translate 0.035278 -0.035278 scale
start_ol
1664 3008 moveto
1664 704 lineto
3065 704 lineto
3753 704 4084 988 conicto
4416 1273 4416 1858 conicto
4416 2448 4084 2728 conicto
3753 3008 3065 3008 conicto
1664 3008 lineto
1664 5568 moveto
1664 3712 lineto
2957 3712 lineto
3597 3712 3910 3941 conicto
4224 4170 4224 4640 conicto
4224 5106 3910 5337 conicto
3597 5568 2957 5568 conicto
1664 5568 lineto
832 6272 moveto
3022 6272 lineto
3999 6272 4527 5871 conicto
5056 5471 5056 4733 conicto
5056 4162 4791 3824 conicto
4526 3486 4012 3403 conicto
4629 3268 4970 2839 conicto
5312 2410 5312 1767 conicto
5312 922 4739 461 conicto
4166 0 3108 0 conicto
832 0 lineto
832 6272 lineto
end_ol grestore 
gsave 22.600487 8.399947 translate 0.035278 -0.035278 scale
start_ol
4864 2536 moveto
4864 2176 lineto
1344 2176 lineto
1394 1363 1818 937 conicto
2243 512 3002 512 conicto
3441 512 3853 624 conicto
4266 736 4672 960 conicto
4672 256 lineto
4258 68 3823 -30 conicto
3388 -128 2941 -128 conicto
1821 -128 1166 534 conicto
512 1196 512 2326 conicto
512 3493 1134 4178 conicto
1757 4864 2814 4864 conicto
3761 4864 4312 4238 conicto
4864 3612 4864 2536 conicto
4096 2752 moveto
4088 3424 3745 3824 conicto
3402 4224 2836 4224 conicto
2196 4224 1811 3837 conicto
1427 3450 1369 2748 conicto
4096 2752 lineto
end_ol grestore 
gsave 23.307322 8.399947 translate 0.035278 -0.035278 scale
start_ol
3968 2430 moveto
3968 3284 3622 3754 conicto
3277 4224 2654 4224 conicto
2035 4224 1689 3754 conicto
1344 3284 1344 2430 conicto
1344 1580 1689 1110 conicto
2035 640 2654 640 conicto
3277 640 3622 1110 conicto
3968 1580 3968 2430 conicto
4736 578 moveto
4736 -622 4201 -1207 conicto
3666 -1792 2562 -1792 conicto
2154 -1792 1791 -1729 conicto
1429 -1666 1088 -1536 conicto
1088 -768 lineto
1430 -964 1763 -1058 conicto
2097 -1152 2444 -1152 conicto
3208 -1152 3588 -756 conicto
3968 -360 3968 441 conicto
3968 832 lineto
3727 414 3350 207 conicto
2974 0 2449 0 conicto
1578 0 1045 666 conicto
512 1332 512 2430 conicto
512 3532 1045 4198 conicto
1578 4864 2449 4864 conicto
2974 4864 3350 4657 conicto
3727 4450 3968 4032 conicto
3968 4736 lineto
4736 4736 lineto
4736 578 lineto
end_ol grestore 
gsave 24.036637 8.399947 translate 0.035278 -0.035278 scale
start_ol
768 4736 moveto
1536 4736 lineto
1536 0 lineto
768 0 lineto
768 4736 lineto
768 6592 moveto
1536 6592 lineto
1536 5632 lineto
768 5632 lineto
768 6592 lineto
end_ol grestore 
gsave 24.356337 8.399947 translate 0.035278 -0.035278 scale
start_ol
4736 2881 moveto
4736 0 lineto
3968 0 lineto
3968 2856 lineto
3968 3510 3703 3835 conicto
3438 4160 2908 4160 conicto
2271 4160 1903 3767 conicto
1536 3375 1536 2698 conicto
1536 0 lineto
768 0 lineto
768 4736 lineto
1536 4736 lineto
1536 4032 lineto
1816 4450 2196 4657 conicto
2577 4864 3074 4864 conicto
3895 4864 4315 4361 conicto
4736 3858 4736 2881 conicto
end_ol grestore 
0.100000 slw
[] 0 sd
[] 0 sd
0 slc
n 23.449974 9.559768 m -2.124680 15.144876 l s
0.100000 slw
[] 0 sd
[] 0 sd
0 slc
n 16.197767 15.060978 m 23.449974 9.559768 l s
0.100000 slw
[] 0 sd
[] 0 sd
0 slc
n 32.822867 15.044378 m 23.449974 9.559768 l s
0.100000 slw
[] 0 sd
[] 0 sd
0 slc
n 52.887367 15.094078 m 23.449974 9.559768 l s
1.000000 1.000000 1.000000 srgb
n -7.970270 21.050815 1.449370 1.322839 0 360 ellipse f
0.100000 slw
[] 0 sd
[] 0 sd
0 slj
0.000000 0.000000 0.000000 srgb
n -7.970270 21.050815 1.449370 1.322839 0 360 ellipse cp s
gsave -8.335270 21.400765 translate 0.035278 -0.035278 scale
start_ol
2750 5696 moveto
2081 5696 1744 5056 conicto
1408 4417 1408 3134 conicto
1408 1855 1744 1215 conicto
2081 576 2750 576 conicto
3423 576 3759 1215 conicto
4096 1855 4096 3134 conicto
4096 4417 3759 5056 conicto
3423 5696 2750 5696 conicto
2752 6400 moveto
3810 6400 4369 5563 conicto
4928 4727 4928 3134 conicto
4928 1545 4369 708 conicto
3810 -128 2752 -128 conicto
1694 -128 1135 708 conicto
576 1545 576 3134 conicto
576 4727 1135 5563 conicto
1694 6400 2752 6400 conicto
end_ol grestore 
1.000000 1.000000 1.000000 srgb
n -2.308054 21.054135 1.374227 1.350854 0 360 ellipse f
0.100000 slw
[] 0 sd
[] 0 sd
0 slj
0.000000 0.000000 0.000000 srgb
n -2.308054 21.054135 1.374227 1.350854 0 360 ellipse cp s
gsave -2.673054 21.404085 translate 0.035278 -0.035278 scale
start_ol
1689 704 moveto
4642 704 lineto
4642 0 lineto
640 0 lineto
640 704 lineto
1129 1207 1974 2055 conicto
2819 2904 3036 3149 conicto
3448 3610 3612 3929 conicto
3776 4249 3776 4558 conicto
3776 5061 3423 5378 conicto
3070 5696 2504 5696 conicto
2103 5696 1657 5553 conicto
1211 5410 704 5120 conicto
704 5952 lineto
1216 6174 1661 6287 conicto
2106 6400 2475 6400 conicto
3449 6400 4028 5910 conicto
4608 5421 4608 4603 conicto
4608 4214 4463 3866 conicto
4319 3518 3938 3046 conicto
3833 2923 3272 2339 conicto
2711 1755 1689 704 conicto
end_ol grestore 
1.000000 1.000000 1.000000 srgb
n 3.261180 21.095315 1.449370 1.322839 0 360 ellipse f
0.100000 slw
[] 0 sd
[] 0 sd
0 slj
0.000000 0.000000 0.000000 srgb
n 3.261180 21.095315 1.449370 1.322839 0 360 ellipse cp s
gsave 2.896180 21.445265 translate 0.035278 -0.035278 scale
start_ol
3328 5531 moveto
1149 2176 lineto
3328 2176 lineto
3328 5531 lineto
3082 6272 moveto
4160 6272 lineto
4160 2176 lineto
5056 2176 lineto
5056 1472 lineto
4160 1472 lineto
4160 0 lineto
3328 0 lineto
3328 1472 lineto
448 1472 lineto
448 2292 lineto
3082 6272 lineto
end_ol grestore 
0.100000 slw
[] 0 sd
[] 0 sd
0 slc
n -7.970270 19.727976 m -2.124680 17.790554 l s
0.100000 slw
[] 0 sd
[] 0 sd
0 slc
n -2.229529 19.656596 m -2.124680 17.790554 l s
0.100000 slw
[] 0 sd
[] 0 sd
0 slc
n 3.261180 19.772476 m -2.124680 17.790554 l s
1.000000 1.000000 1.000000 srgb
n 10.247550 21.069815 1.449370 1.322839 0 360 ellipse f
0.100000 slw
[] 0 sd
[] 0 sd
0 slj
0.000000 0.000000 0.000000 srgb
n 10.247550 21.069815 1.449370 1.322839 0 360 ellipse cp s
gsave 9.882550 21.419765 translate 0.035278 -0.035278 scale
start_ol
2750 5696 moveto
2081 5696 1744 5056 conicto
1408 4417 1408 3134 conicto
1408 1855 1744 1215 conicto
2081 576 2750 576 conicto
3423 576 3759 1215 conicto
4096 1855 4096 3134 conicto
4096 4417 3759 5056 conicto
3423 5696 2750 5696 conicto
2752 6400 moveto
3810 6400 4369 5563 conicto
4928 4727 4928 3134 conicto
4928 1545 4369 708 conicto
3810 -128 2752 -128 conicto
1694 -128 1135 708 conicto
576 1545 576 3134 conicto
576 4727 1135 5563 conicto
1694 6400 2752 6400 conicto
end_ol grestore 
1.000000 1.000000 1.000000 srgb
n 15.936976 20.991435 1.374227 1.350854 0 360 ellipse f
0.100000 slw
[] 0 sd
[] 0 sd
0 slj
0.000000 0.000000 0.000000 srgb
n 15.936976 20.991435 1.374227 1.350854 0 360 ellipse cp s
gsave 15.571976 21.341385 translate 0.035278 -0.035278 scale
start_ol
1689 704 moveto
4642 704 lineto
4642 0 lineto
640 0 lineto
640 704 lineto
1129 1207 1974 2055 conicto
2819 2904 3036 3149 conicto
3448 3610 3612 3929 conicto
3776 4249 3776 4558 conicto
3776 5061 3423 5378 conicto
3070 5696 2504 5696 conicto
2103 5696 1657 5553 conicto
1211 5410 704 5120 conicto
704 5952 lineto
1216 6174 1661 6287 conicto
2106 6400 2475 6400 conicto
3449 6400 4028 5910 conicto
4608 5421 4608 4603 conicto
4608 4214 4463 3866 conicto
4319 3518 3938 3046 conicto
3833 2923 3272 2339 conicto
2711 1755 1689 704 conicto
end_ol grestore 
1.000000 1.000000 1.000000 srgb
n 20.552090 21.059915 1.449370 1.322839 0 360 ellipse f
0.100000 slw
[] 0 sd
[] 0 sd
0 slj
0.000000 0.000000 0.000000 srgb
n 20.552090 21.059915 1.449370 1.322839 0 360 ellipse cp s
gsave 20.187090 21.409865 translate 0.035278 -0.035278 scale
start_ol
3328 5531 moveto
1149 2176 lineto
3328 2176 lineto
3328 5531 lineto
3082 6272 moveto
4160 6272 lineto
4160 2176 lineto
5056 2176 lineto
5056 1472 lineto
4160 1472 lineto
4160 0 lineto
3328 0 lineto
3328 1472 lineto
448 1472 lineto
448 2292 lineto
3082 6272 lineto
end_ol grestore 
0.100000 slw
[] 0 sd
[] 0 sd
0 slc
n 10.247550 19.746976 m 16.197767 17.736999 l s
0.100000 slw
[] 0 sd
[] 0 sd
0 slc
n 16.048843 19.595428 m 16.197767 17.736999 l s
0.100000 slw
[] 0 sd
[] 0 sd
0 slc
n 20.552090 19.737076 m 16.197767 17.736999 l s
1.000000 1.000000 1.000000 srgb
n 46.508490 21.070915 1.449370 1.322839 0 360 ellipse f
0.100000 slw
[] 0 sd
[] 0 sd
0 slj
0.000000 0.000000 0.000000 srgb
n 46.508490 21.070915 1.449370 1.322839 0 360 ellipse cp s
gsave 46.143490 21.420865 translate 0.035278 -0.035278 scale
start_ol
2750 5696 moveto
2081 5696 1744 5056 conicto
1408 4417 1408 3134 conicto
1408 1855 1744 1215 conicto
2081 576 2750 576 conicto
3423 576 3759 1215 conicto
4096 1855 4096 3134 conicto
4096 4417 3759 5056 conicto
3423 5696 2750 5696 conicto
2752 6400 moveto
3810 6400 4369 5563 conicto
4928 4727 4928 3134 conicto
4928 1545 4369 708 conicto
3810 -128 2752 -128 conicto
1694 -128 1135 708 conicto
576 1545 576 3134 conicto
576 4727 1135 5563 conicto
1694 6400 2752 6400 conicto
end_ol grestore 
1.000000 1.000000 1.000000 srgb
n 53.197876 21.058835 1.374227 1.350854 0 360 ellipse f
0.100000 slw
[] 0 sd
[] 0 sd
0 slj
0.000000 0.000000 0.000000 srgb
n 53.197876 21.058835 1.374227 1.350854 0 360 ellipse cp s
gsave 52.832876 21.408785 translate 0.035278 -0.035278 scale
start_ol
1689 704 moveto
4642 704 lineto
4642 0 lineto
640 0 lineto
640 704 lineto
1129 1207 1974 2055 conicto
2819 2904 3036 3149 conicto
3448 3610 3612 3929 conicto
3776 4249 3776 4558 conicto
3776 5061 3423 5378 conicto
3070 5696 2504 5696 conicto
2103 5696 1657 5553 conicto
1211 5410 704 5120 conicto
704 5952 lineto
1216 6174 1661 6287 conicto
2106 6400 2475 6400 conicto
3449 6400 4028 5910 conicto
4608 5421 4608 4603 conicto
4608 4214 4463 3866 conicto
4319 3518 3938 3046 conicto
3833 2923 3272 2339 conicto
2711 1755 1689 704 conicto
end_ol grestore 
1.000000 1.000000 1.000000 srgb
n 59.750790 21.033615 1.449370 1.322839 0 360 ellipse f
0.100000 slw
[] 0 sd
[] 0 sd
0 slj
0.000000 0.000000 0.000000 srgb
n 59.750790 21.033615 1.449370 1.322839 0 360 ellipse cp s
gsave 59.385790 21.383565 translate 0.035278 -0.035278 scale
start_ol
3328 5531 moveto
1149 2176 lineto
3328 2176 lineto
3328 5531 lineto
3082 6272 moveto
4160 6272 lineto
4160 2176 lineto
5056 2176 lineto
5056 1472 lineto
4160 1472 lineto
4160 0 lineto
3328 0 lineto
3328 1472 lineto
448 1472 lineto
448 2292 lineto
3082 6272 lineto
end_ol grestore 
0.100000 slw
[] 0 sd
[] 0 sd
0 slc
n 46.508490 19.748076 m 52.887367 17.770099 l s
0.100000 slw
[] 0 sd
[] 0 sd
0 slc
n 53.066197 19.664173 m 52.887367 17.770099 l s
0.100000 slw
[] 0 sd
[] 0 sd
0 slc
n 59.750790 19.710776 m 52.887367 17.770099 l s
1.000000 1.000000 1.000000 srgb
n 29.539290 21.021815 1.449370 1.322839 0 360 ellipse f
0.100000 slw
[] 0 sd
[] 0 sd
0 slj
0.000000 0.000000 0.000000 srgb
n 29.539290 21.021815 1.449370 1.322839 0 360 ellipse cp s
gsave 29.174290 21.371765 translate 0.035278 -0.035278 scale
start_ol
2750 5696 moveto
2081 5696 1744 5056 conicto
1408 4417 1408 3134 conicto
1408 1855 1744 1215 conicto
2081 576 2750 576 conicto
3423 576 3759 1215 conicto
4096 1855 4096 3134 conicto
4096 4417 3759 5056 conicto
3423 5696 2750 5696 conicto
2752 6400 moveto
3810 6400 4369 5563 conicto
4928 4727 4928 3134 conicto
4928 1545 4369 708 conicto
3810 -128 2752 -128 conicto
1694 -128 1135 708 conicto
576 1545 576 3134 conicto
576 4727 1135 5563 conicto
1694 6400 2752 6400 conicto
end_ol grestore 
1.000000 1.000000 1.000000 srgb
n 35.414476 21.004535 1.374227 1.350854 0 360 ellipse f
0.100000 slw
[] 0 sd
[] 0 sd
0 slj
0.000000 0.000000 0.000000 srgb
n 35.414476 21.004535 1.374227 1.350854 0 360 ellipse cp s
gsave 35.049476 21.354485 translate 0.035278 -0.035278 scale
start_ol
3328 5531 moveto
1149 2176 lineto
3328 2176 lineto
3328 5531 lineto
3082 6272 moveto
4160 6272 lineto
4160 2176 lineto
5056 2176 lineto
5056 1472 lineto
4160 1472 lineto
4160 0 lineto
3328 0 lineto
3328 1472 lineto
448 1472 lineto
448 2292 lineto
3082 6272 lineto
end_ol grestore 
0.100000 slw
[] 0 sd
[] 0 sd
0 slc
n 29.539290 19.698976 m 32.822867 17.720399 l s
0.100000 slw
[] 0 sd
[] 0 sd
0 slc
n 34.541010 19.897663 m 32.822867 17.720399 l s
1.000000 1.000000 1.000000 srgb
n -12.849510 25.482615 1.449370 1.322839 0 360 ellipse f
0.100000 slw
[] 0 sd
[] 0 sd
0 slj
0.000000 0.000000 0.000000 srgb
n -12.849510 25.482615 1.449370 1.322839 0 360 ellipse cp s
gsave -13.214510 25.832565 translate 0.035278 -0.035278 scale
start_ol
2750 5696 moveto
2081 5696 1744 5056 conicto
1408 4417 1408 3134 conicto
1408 1855 1744 1215 conicto
2081 576 2750 576 conicto
3423 576 3759 1215 conicto
4096 1855 4096 3134 conicto
4096 4417 3759 5056 conicto
3423 5696 2750 5696 conicto
2752 6400 moveto
3810 6400 4369 5563 conicto
4928 4727 4928 3134 conicto
4928 1545 4369 708 conicto
3810 -128 2752 -128 conicto
1694 -128 1135 708 conicto
576 1545 576 3134 conicto
576 4727 1135 5563 conicto
1694 6400 2752 6400 conicto
end_ol grestore 
1.000000 1.000000 1.000000 srgb
n -9.924724 25.524635 1.374227 1.350854 0 360 ellipse f
0.100000 slw
[] 0 sd
[] 0 sd
0 slj
0.000000 0.000000 0.000000 srgb
n -9.924724 25.524635 1.374227 1.350854 0 360 ellipse cp s
gsave -10.289724 25.874585 translate 0.035278 -0.035278 scale
start_ol
1689 704 moveto
4642 704 lineto
4642 0 lineto
640 0 lineto
640 704 lineto
1129 1207 1974 2055 conicto
2819 2904 3036 3149 conicto
3448 3610 3612 3929 conicto
3776 4249 3776 4558 conicto
3776 5061 3423 5378 conicto
3070 5696 2504 5696 conicto
2103 5696 1657 5553 conicto
1211 5410 704 5120 conicto
704 5952 lineto
1216 6174 1661 6287 conicto
2106 6400 2475 6400 conicto
3449 6400 4028 5910 conicto
4608 5421 4608 4603 conicto
4608 4214 4463 3866 conicto
4319 3518 3938 3046 conicto
3833 2923 3272 2339 conicto
2711 1755 1689 704 conicto
end_ol grestore 
1.000000 1.000000 1.000000 srgb
n -7.015790 25.527215 1.449370 1.322839 0 360 ellipse f
0.100000 slw
[] 0 sd
[] 0 sd
0 slj
0.000000 0.000000 0.000000 srgb
n -7.015790 25.527215 1.449370 1.322839 0 360 ellipse cp s
gsave -7.380790 25.877165 translate 0.035278 -0.035278 scale
start_ol
896 6272 moveto
4288 6272 lineto
4288 5568 lineto
1728 5568 lineto
1728 4036 lineto
1912 4098 2096 4129 conicto
2281 4160 2465 4160 conicto
3513 4160 4124 3582 conicto
4736 3004 4736 2016 conicto
4736 999 4100 435 conicto
3464 -128 2306 -128 conicto
1908 -128 1494 -64 conicto
1081 0 640 128 conicto
640 960 lineto
1025 766 1435 671 conicto
1845 576 2302 576 conicto
3041 576 3472 963 conicto
3904 1351 3904 2016 conicto
3904 2681 3470 3068 conicto
3037 3456 2295 3456 conicto
1947 3456 1601 3378 conicto
1256 3300 896 3136 conicto
896 6272 lineto
end_ol grestore 
0.100000 slw
[] 0 sd
[] 0 sd
0 slc
n -12.849510 24.159776 m -7.970270 22.373654 l s
0.100000 slw
[] 0 sd
[] 0 sd
0 slc
n -9.182976 24.328785 m -7.970270 22.373654 l s
0.100000 slw
[] 0 sd
[] 0 sd
0 slc
n -7.015790 24.204376 m -7.970270 22.373654 l s
1.000000 1.000000 1.000000 srgb
n -3.843080 25.679215 1.449370 1.322839 0 360 ellipse f
0.100000 slw
[] 0 sd
[] 0 sd
0 slj
0.000000 0.000000 0.000000 srgb
n -3.843080 25.679215 1.449370 1.322839 0 360 ellipse cp s
gsave -4.208080 26.029165 translate 0.035278 -0.035278 scale
start_ol
2750 5696 moveto
2081 5696 1744 5056 conicto
1408 4417 1408 3134 conicto
1408 1855 1744 1215 conicto
2081 576 2750 576 conicto
3423 576 3759 1215 conicto
4096 1855 4096 3134 conicto
4096 4417 3759 5056 conicto
3423 5696 2750 5696 conicto
2752 6400 moveto
3810 6400 4369 5563 conicto
4928 4727 4928 3134 conicto
4928 1545 4369 708 conicto
3810 -128 2752 -128 conicto
1694 -128 1135 708 conicto
576 1545 576 3134 conicto
576 4727 1135 5563 conicto
1694 6400 2752 6400 conicto
end_ol grestore 
1.000000 1.000000 1.000000 srgb
n -1.093740 25.685315 1.449370 1.322839 0 360 ellipse f
0.100000 slw
[] 0 sd
[] 0 sd
0 slj
0.000000 0.000000 0.000000 srgb
n -1.093740 25.685315 1.449370 1.322839 0 360 ellipse cp s
gsave -1.458740 26.035265 translate 0.035278 -0.035278 scale
start_ol
896 6272 moveto
4288 6272 lineto
4288 5568 lineto
1728 5568 lineto
1728 4036 lineto
1912 4098 2096 4129 conicto
2281 4160 2465 4160 conicto
3513 4160 4124 3582 conicto
4736 3004 4736 2016 conicto
4736 999 4100 435 conicto
3464 -128 2306 -128 conicto
1908 -128 1494 -64 conicto
1081 0 640 128 conicto
640 960 lineto
1025 766 1435 671 conicto
1845 576 2302 576 conicto
3041 576 3472 963 conicto
3904 1351 3904 2016 conicto
3904 2681 3470 3068 conicto
3037 3456 2295 3456 conicto
1947 3456 1601 3378 conicto
1256 3300 896 3136 conicto
896 6272 lineto
end_ol grestore 
0.100000 slw
[] 0 sd
[] 0 sd
0 slc
n -3.843080 24.356376 m -2.308054 22.404989 l s
0.100000 slw
[] 0 sd
[] 0 sd
0 slc
n -1.093740 24.362476 m -2.308054 22.404989 l s
1.000000 1.000000 1.000000 srgb
n 1.431245 25.721715 1.449370 1.322839 0 360 ellipse f
0.100000 slw
[] 0 sd
[] 0 sd
0 slj
0.000000 0.000000 0.000000 srgb
n 1.431245 25.721715 1.449370 1.322839 0 360 ellipse cp s
gsave 1.066245 26.071665 translate 0.035278 -0.035278 scale
start_ol
2750 5696 moveto
2081 5696 1744 5056 conicto
1408 4417 1408 3134 conicto
1408 1855 1744 1215 conicto
2081 576 2750 576 conicto
3423 576 3759 1215 conicto
4096 1855 4096 3134 conicto
4096 4417 3759 5056 conicto
3423 5696 2750 5696 conicto
2752 6400 moveto
3810 6400 4369 5563 conicto
4928 4727 4928 3134 conicto
4928 1545 4369 708 conicto
3810 -128 2752 -128 conicto
1694 -128 1135 708 conicto
576 1545 576 3134 conicto
576 4727 1135 5563 conicto
1694 6400 2752 6400 conicto
end_ol grestore 
1.000000 1.000000 1.000000 srgb
n 3.816286 25.763635 1.374227 1.350854 0 360 ellipse f
0.100000 slw
[] 0 sd
[] 0 sd
0 slj
0.000000 0.000000 0.000000 srgb
n 3.816286 25.763635 1.374227 1.350854 0 360 ellipse cp s
gsave 3.451286 26.113585 translate 0.035278 -0.035278 scale
start_ol
1689 704 moveto
4642 704 lineto
4642 0 lineto
640 0 lineto
640 704 lineto
1129 1207 1974 2055 conicto
2819 2904 3036 3149 conicto
3448 3610 3612 3929 conicto
3776 4249 3776 4558 conicto
3776 5061 3423 5378 conicto
3070 5696 2504 5696 conicto
2103 5696 1657 5553 conicto
1211 5410 704 5120 conicto
704 5952 lineto
1216 6174 1661 6287 conicto
2106 6400 2475 6400 conicto
3449 6400 4028 5910 conicto
4608 5421 4608 4603 conicto
4608 4214 4463 3866 conicto
4319 3518 3938 3046 conicto
3833 2923 3272 2339 conicto
2711 1755 1689 704 conicto
end_ol grestore 
1.000000 1.000000 1.000000 srgb
n 6.229453 25.766260 1.366430 1.352355 0 360 ellipse f
0.100000 slw
[] 0 sd
[] 0 sd
0 slj
0.000000 0.000000 0.000000 srgb
n 6.229453 25.766260 1.366430 1.352355 0 360 ellipse cp s
gsave 5.864453 26.116210 translate 0.035278 -0.035278 scale
start_ol
896 6272 moveto
4288 6272 lineto
4288 5568 lineto
1728 5568 lineto
1728 4036 lineto
1912 4098 2096 4129 conicto
2281 4160 2465 4160 conicto
3513 4160 4124 3582 conicto
4736 3004 4736 2016 conicto
4736 999 4100 435 conicto
3464 -128 2306 -128 conicto
1908 -128 1494 -64 conicto
1081 0 640 128 conicto
640 960 lineto
1025 766 1435 671 conicto
1845 576 2302 576 conicto
3041 576 3472 963 conicto
3904 1351 3904 2016 conicto
3904 2681 3470 3068 conicto
3037 3456 2295 3456 conicto
1947 3456 1601 3378 conicto
1256 3300 896 3136 conicto
896 6272 lineto
end_ol grestore 
0.100000 slw
[] 0 sd
[] 0 sd
0 slc
n 1.431245 24.398876 m 3.261180 22.418154 l s
0.100000 slw
[] 0 sd
[] 0 sd
0 slc
n 3.586912 24.381256 m 3.261180 22.418154 l s
0.100000 slw
[] 0 sd
[] 0 sd
0 slc
n 6.229453 24.413905 m 3.261180 22.418154 l s
1.000000 1.000000 1.000000 srgb
n 8.425130 25.799315 1.449370 1.322839 0 360 ellipse f
0.100000 slw
[] 0 sd
[] 0 sd
0 slj
0.000000 0.000000 0.000000 srgb
n 8.425130 25.799315 1.449370 1.322839 0 360 ellipse cp s
gsave 8.060130 26.149265 translate 0.035278 -0.035278 scale
start_ol
2750 5696 moveto
2081 5696 1744 5056 conicto
1408 4417 1408 3134 conicto
1408 1855 1744 1215 conicto
2081 576 2750 576 conicto
3423 576 3759 1215 conicto
4096 1855 4096 3134 conicto
4096 4417 3759 5056 conicto
3423 5696 2750 5696 conicto
2752 6400 moveto
3810 6400 4369 5563 conicto
4928 4727 4928 3134 conicto
4928 1545 4369 708 conicto
3810 -128 2752 -128 conicto
1694 -128 1135 708 conicto
576 1545 576 3134 conicto
576 4727 1135 5563 conicto
1694 6400 2752 6400 conicto
end_ol grestore 
1.000000 1.000000 1.000000 srgb
n 10.617386 25.764235 1.374227 1.350854 0 360 ellipse f
0.100000 slw
[] 0 sd
[] 0 sd
0 slj
0.000000 0.000000 0.000000 srgb
n 10.617386 25.764235 1.374227 1.350854 0 360 ellipse cp s
gsave 10.252386 26.114185 translate 0.035278 -0.035278 scale
start_ol
1689 704 moveto
4642 704 lineto
4642 0 lineto
640 0 lineto
640 704 lineto
1129 1207 1974 2055 conicto
2819 2904 3036 3149 conicto
3448 3610 3612 3929 conicto
3776 4249 3776 4558 conicto
3776 5061 3423 5378 conicto
3070 5696 2504 5696 conicto
2103 5696 1657 5553 conicto
1211 5410 704 5120 conicto
704 5952 lineto
1216 6174 1661 6287 conicto
2106 6400 2475 6400 conicto
3449 6400 4028 5910 conicto
4608 5421 4608 4603 conicto
4608 4214 4463 3866 conicto
4319 3518 3938 3046 conicto
3833 2923 3272 2339 conicto
2711 1755 1689 704 conicto
end_ol grestore 
1.000000 1.000000 1.000000 srgb
n 12.760683 25.766860 1.366430 1.352355 0 360 ellipse f
0.100000 slw
[] 0 sd
[] 0 sd
0 slj
0.000000 0.000000 0.000000 srgb
n 12.760683 25.766860 1.366430 1.352355 0 360 ellipse cp s
gsave 12.395683 26.116810 translate 0.035278 -0.035278 scale
start_ol
896 6272 moveto
4288 6272 lineto
4288 5568 lineto
1728 5568 lineto
1728 4036 lineto
1912 4098 2096 4129 conicto
2281 4160 2465 4160 conicto
3513 4160 4124 3582 conicto
4736 3004 4736 2016 conicto
4736 999 4100 435 conicto
3464 -128 2306 -128 conicto
1908 -128 1494 -64 conicto
1081 0 640 128 conicto
640 960 lineto
1025 766 1435 671 conicto
1845 576 2302 576 conicto
3041 576 3472 963 conicto
3904 1351 3904 2016 conicto
3904 2681 3470 3068 conicto
3037 3456 2295 3456 conicto
1947 3456 1601 3378 conicto
1256 3300 896 3136 conicto
896 6272 lineto
end_ol grestore 
0.100000 slw
[] 0 sd
[] 0 sd
0 slc
n 8.425130 24.476476 m 10.247550 22.392654 l s
0.100000 slw
[] 0 sd
[] 0 sd
0 slc
n 10.464567 24.371071 m 10.247550 22.392654 l s
0.100000 slw
[] 0 sd
[] 0 sd
0 slc
n 12.760683 24.414505 m 10.247550 22.392654 l s
1.000000 1.000000 1.000000 srgb
n 14.971790 25.687515 1.449370 1.322839 0 360 ellipse f
0.100000 slw
[] 0 sd
[] 0 sd
0 slj
0.000000 0.000000 0.000000 srgb
n 14.971790 25.687515 1.449370 1.322839 0 360 ellipse cp s
gsave 14.606790 26.037465 translate 0.035278 -0.035278 scale
start_ol
2750 5696 moveto
2081 5696 1744 5056 conicto
1408 4417 1408 3134 conicto
1408 1855 1744 1215 conicto
2081 576 2750 576 conicto
3423 576 3759 1215 conicto
4096 1855 4096 3134 conicto
4096 4417 3759 5056 conicto
3423 5696 2750 5696 conicto
2752 6400 moveto
3810 6400 4369 5563 conicto
4928 4727 4928 3134 conicto
4928 1545 4369 708 conicto
3810 -128 2752 -128 conicto
1694 -128 1135 708 conicto
576 1545 576 3134 conicto
576 4727 1135 5563 conicto
1694 6400 2752 6400 conicto
end_ol grestore 
1.000000 1.000000 1.000000 srgb
n 17.418083 25.770660 1.366430 1.352355 0 360 ellipse f
0.100000 slw
[] 0 sd
[] 0 sd
0 slj
0.000000 0.000000 0.000000 srgb
n 17.418083 25.770660 1.366430 1.352355 0 360 ellipse cp s
gsave 17.053083 26.120610 translate 0.035278 -0.035278 scale
start_ol
896 6272 moveto
4288 6272 lineto
4288 5568 lineto
1728 5568 lineto
1728 4036 lineto
1912 4098 2096 4129 conicto
2281 4160 2465 4160 conicto
3513 4160 4124 3582 conicto
4736 3004 4736 2016 conicto
4736 999 4100 435 conicto
3464 -128 2306 -128 conicto
1908 -128 1494 -64 conicto
1081 0 640 128 conicto
640 960 lineto
1025 766 1435 671 conicto
1845 576 2302 576 conicto
3041 576 3472 963 conicto
3904 1351 3904 2016 conicto
3904 2681 3470 3068 conicto
3037 3456 2295 3456 conicto
1947 3456 1601 3378 conicto
1256 3300 896 3136 conicto
896 6272 lineto
end_ol grestore 
0.100000 slw
[] 0 sd
[] 0 sd
0 slc
n 14.971790 24.364676 m 15.936976 22.342289 l s
0.100000 slw
[] 0 sd
[] 0 sd
0 slc
n 17.418083 24.418305 m 15.936976 22.342289 l s
1.000000 1.000000 1.000000 srgb
n 19.744890 25.768515 1.449370 1.322839 0 360 ellipse f
0.100000 slw
[] 0 sd
[] 0 sd
0 slj
0.000000 0.000000 0.000000 srgb
n 19.744890 25.768515 1.449370 1.322839 0 360 ellipse cp s
gsave 19.379890 26.118465 translate 0.035278 -0.035278 scale
start_ol
2750 5696 moveto
2081 5696 1744 5056 conicto
1408 4417 1408 3134 conicto
1408 1855 1744 1215 conicto
2081 576 2750 576 conicto
3423 576 3759 1215 conicto
4096 1855 4096 3134 conicto
4096 4417 3759 5056 conicto
3423 5696 2750 5696 conicto
2752 6400 moveto
3810 6400 4369 5563 conicto
4928 4727 4928 3134 conicto
4928 1545 4369 708 conicto
3810 -128 2752 -128 conicto
1694 -128 1135 708 conicto
576 1545 576 3134 conicto
576 4727 1135 5563 conicto
1694 6400 2752 6400 conicto
end_ol grestore 
1.000000 1.000000 1.000000 srgb
n 22.014276 25.733335 1.374227 1.350854 0 360 ellipse f
0.100000 slw
[] 0 sd
[] 0 sd
0 slj
0.000000 0.000000 0.000000 srgb
n 22.014276 25.733335 1.374227 1.350854 0 360 ellipse cp s
gsave 21.649276 26.083285 translate 0.035278 -0.035278 scale
start_ol
1689 704 moveto
4642 704 lineto
4642 0 lineto
640 0 lineto
640 704 lineto
1129 1207 1974 2055 conicto
2819 2904 3036 3149 conicto
3448 3610 3612 3929 conicto
3776 4249 3776 4558 conicto
3776 5061 3423 5378 conicto
3070 5696 2504 5696 conicto
2103 5696 1657 5553 conicto
1211 5410 704 5120 conicto
704 5952 lineto
1216 6174 1661 6287 conicto
2106 6400 2475 6400 conicto
3449 6400 4028 5910 conicto
4608 5421 4608 4603 conicto
4608 4214 4463 3866 conicto
4319 3518 3938 3046 conicto
3833 2923 3272 2339 conicto
2711 1755 1689 704 conicto
end_ol grestore 
1.000000 1.000000 1.000000 srgb
n 24.273183 25.813060 1.366430 1.352355 0 360 ellipse f
0.100000 slw
[] 0 sd
[] 0 sd
0 slj
0.000000 0.000000 0.000000 srgb
n 24.273183 25.813060 1.366430 1.352355 0 360 ellipse cp s
gsave 23.908183 26.163010 translate 0.035278 -0.035278 scale
start_ol
896 6272 moveto
4288 6272 lineto
4288 5568 lineto
1728 5568 lineto
1728 4036 lineto
1912 4098 2096 4129 conicto
2281 4160 2465 4160 conicto
3513 4160 4124 3582 conicto
4736 3004 4736 2016 conicto
4736 999 4100 435 conicto
3464 -128 2306 -128 conicto
1908 -128 1494 -64 conicto
1081 0 640 128 conicto
640 960 lineto
1025 766 1435 671 conicto
1845 576 2302 576 conicto
3041 576 3472 963 conicto
3904 1351 3904 2016 conicto
3904 2681 3470 3068 conicto
3037 3456 2295 3456 conicto
1947 3456 1601 3378 conicto
1256 3300 896 3136 conicto
896 6272 lineto
end_ol grestore 
0.100000 slw
[] 0 sd
[] 0 sd
0 slc
n 19.744890 24.445676 m 20.552090 22.382754 l s
0.100000 slw
[] 0 sd
[] 0 sd
0 slc
n 21.452748 24.446601 m 20.552090 22.382754 l s
0.100000 slw
[] 0 sd
[] 0 sd
0 slc
n 24.273183 24.460705 m 20.552090 22.382754 l s
1.000000 1.000000 1.000000 srgb
n 27.250740 25.576922 1.342234 1.344558 0 360 ellipse f
0.100000 slw
[] 0 sd
[] 0 sd
0 slj
0.000000 0.000000 0.000000 srgb
n 27.250740 25.576922 1.342234 1.344558 0 360 ellipse cp s
gsave 26.885740 25.926872 translate 0.035278 -0.035278 scale
start_ol
2750 5696 moveto
2081 5696 1744 5056 conicto
1408 4417 1408 3134 conicto
1408 1855 1744 1215 conicto
2081 576 2750 576 conicto
3423 576 3759 1215 conicto
4096 1855 4096 3134 conicto
4096 4417 3759 5056 conicto
3423 5696 2750 5696 conicto
2752 6400 moveto
3810 6400 4369 5563 conicto
4928 4727 4928 3134 conicto
4928 1545 4369 708 conicto
3810 -128 2752 -128 conicto
1694 -128 1135 708 conicto
576 1545 576 3134 conicto
576 4727 1135 5563 conicto
1694 6400 2752 6400 conicto
end_ol grestore 
1.000000 1.000000 1.000000 srgb
n 30.197383 25.624160 1.366430 1.352355 0 360 ellipse f
0.100000 slw
[] 0 sd
[] 0 sd
0 slj
0.000000 0.000000 0.000000 srgb
n 30.197383 25.624160 1.366430 1.352355 0 360 ellipse cp s
gsave 29.832383 25.974110 translate 0.035278 -0.035278 scale
start_ol
896 6272 moveto
4288 6272 lineto
4288 5568 lineto
1728 5568 lineto
1728 4036 lineto
1912 4098 2096 4129 conicto
2281 4160 2465 4160 conicto
3513 4160 4124 3582 conicto
4736 3004 4736 2016 conicto
4736 999 4100 435 conicto
3464 -128 2306 -128 conicto
1908 -128 1494 -64 conicto
1081 0 640 128 conicto
640 960 lineto
1025 766 1435 671 conicto
1845 576 2302 576 conicto
3041 576 3472 963 conicto
3904 1351 3904 2016 conicto
3904 2681 3470 3068 conicto
3037 3456 2295 3456 conicto
1947 3456 1601 3378 conicto
1256 3300 896 3136 conicto
896 6272 lineto
end_ol grestore 
0.100000 slw
[] 0 sd
[] 0 sd
0 slc
n 27.250740 24.232364 m 29.539290 22.344654 l s
0.100000 slw
[] 0 sd
[] 0 sd
0 slc
n 30.197383 24.271805 m 29.539290 22.344654 l s
1.000000 1.000000 1.000000 srgb
n 34.066290 25.506315 1.449370 1.322839 0 360 ellipse f
0.100000 slw
[] 0 sd
[] 0 sd
0 slj
0.000000 0.000000 0.000000 srgb
n 34.066290 25.506315 1.449370 1.322839 0 360 ellipse cp s
gsave 33.701290 25.856265 translate 0.035278 -0.035278 scale
start_ol
2750 5696 moveto
2081 5696 1744 5056 conicto
1408 4417 1408 3134 conicto
1408 1855 1744 1215 conicto
2081 576 2750 576 conicto
3423 576 3759 1215 conicto
4096 1855 4096 3134 conicto
4096 4417 3759 5056 conicto
3423 5696 2750 5696 conicto
2752 6400 moveto
3810 6400 4369 5563 conicto
4928 4727 4928 3134 conicto
4928 1545 4369 708 conicto
3810 -128 2752 -128 conicto
1694 -128 1135 708 conicto
576 1545 576 3134 conicto
576 4727 1135 5563 conicto
1694 6400 2752 6400 conicto
end_ol grestore 
1.000000 1.000000 1.000000 srgb
n 37.437983 25.473760 1.366430 1.352355 0 360 ellipse f
0.100000 slw
[] 0 sd
[] 0 sd
0 slj
0.000000 0.000000 0.000000 srgb
n 37.437983 25.473760 1.366430 1.352355 0 360 ellipse cp s
gsave 37.072983 25.823710 translate 0.035278 -0.035278 scale
start_ol
896 6272 moveto
4288 6272 lineto
4288 5568 lineto
1728 5568 lineto
1728 4036 lineto
1912 4098 2096 4129 conicto
2281 4160 2465 4160 conicto
3513 4160 4124 3582 conicto
4736 3004 4736 2016 conicto
4736 999 4100 435 conicto
3464 -128 2306 -128 conicto
1908 -128 1494 -64 conicto
1081 0 640 128 conicto
640 960 lineto
1025 766 1435 671 conicto
1845 576 2302 576 conicto
3041 576 3472 963 conicto
3904 1351 3904 2016 conicto
3904 2681 3470 3068 conicto
3037 3456 2295 3456 conicto
1947 3456 1601 3378 conicto
1256 3300 896 3136 conicto
896 6272 lineto
end_ol grestore 
0.100000 slw
[] 0 sd
[] 0 sd
0 slc
n 34.066290 24.183476 m 35.414476 22.355389 l s
0.100000 slw
[] 0 sd
[] 0 sd
0 slc
n 37.437983 24.121405 m 35.414476 22.355389 l s
1.000000 1.000000 1.000000 srgb
n 42.425090 25.587315 1.449370 1.322839 0 360 ellipse f
0.100000 slw
[] 0 sd
[] 0 sd
0 slj
0.000000 0.000000 0.000000 srgb
n 42.425090 25.587315 1.449370 1.322839 0 360 ellipse cp s
gsave 42.060090 25.937265 translate 0.035278 -0.035278 scale
start_ol
2750 5696 moveto
2081 5696 1744 5056 conicto
1408 4417 1408 3134 conicto
1408 1855 1744 1215 conicto
2081 576 2750 576 conicto
3423 576 3759 1215 conicto
4096 1855 4096 3134 conicto
4096 4417 3759 5056 conicto
3423 5696 2750 5696 conicto
2752 6400 moveto
3810 6400 4369 5563 conicto
4928 4727 4928 3134 conicto
4928 1545 4369 708 conicto
3810 -128 2752 -128 conicto
1694 -128 1135 708 conicto
576 1545 576 3134 conicto
576 4727 1135 5563 conicto
1694 6400 2752 6400 conicto
end_ol grestore 
1.000000 1.000000 1.000000 srgb
n 45.041476 25.552135 1.374227 1.350854 0 360 ellipse f
0.100000 slw
[] 0 sd
[] 0 sd
0 slj
0.000000 0.000000 0.000000 srgb
n 45.041476 25.552135 1.374227 1.350854 0 360 ellipse cp s
gsave 44.676476 25.902085 translate 0.035278 -0.035278 scale
start_ol
1689 704 moveto
4642 704 lineto
4642 0 lineto
640 0 lineto
640 704 lineto
1129 1207 1974 2055 conicto
2819 2904 3036 3149 conicto
3448 3610 3612 3929 conicto
3776 4249 3776 4558 conicto
3776 5061 3423 5378 conicto
3070 5696 2504 5696 conicto
2103 5696 1657 5553 conicto
1211 5410 704 5120 conicto
704 5952 lineto
1216 6174 1661 6287 conicto
2106 6400 2475 6400 conicto
3449 6400 4028 5910 conicto
4608 5421 4608 4603 conicto
4608 4214 4463 3866 conicto
4319 3518 3938 3046 conicto
3833 2923 3272 2339 conicto
2711 1755 1689 704 conicto
end_ol grestore 
1.000000 1.000000 1.000000 srgb
n 47.454583 25.593360 1.366430 1.352355 0 360 ellipse f
0.100000 slw
[] 0 sd
[] 0 sd
0 slj
0.000000 0.000000 0.000000 srgb
n 47.454583 25.593360 1.366430 1.352355 0 360 ellipse cp s
gsave 47.089583 25.943310 translate 0.035278 -0.035278 scale
start_ol
896 6272 moveto
4288 6272 lineto
4288 5568 lineto
1728 5568 lineto
1728 4036 lineto
1912 4098 2096 4129 conicto
2281 4160 2465 4160 conicto
3513 4160 4124 3582 conicto
4736 3004 4736 2016 conicto
4736 999 4100 435 conicto
3464 -128 2306 -128 conicto
1908 -128 1494 -64 conicto
1081 0 640 128 conicto
640 960 lineto
1025 766 1435 671 conicto
1845 576 2302 576 conicto
3041 576 3472 963 conicto
3904 1351 3904 2016 conicto
3904 2681 3470 3068 conicto
3037 3456 2295 3456 conicto
1947 3456 1601 3378 conicto
1256 3300 896 3136 conicto
896 6272 lineto
end_ol grestore 
0.100000 slw
[] 0 sd
[] 0 sd
0 slc
n 42.425090 24.264476 m 46.508490 22.393754 l s
0.100000 slw
[] 0 sd
[] 0 sd
0 slc
n 45.633331 24.277910 m 46.508490 22.393754 l s
0.100000 slw
[] 0 sd
[] 0 sd
0 slc
n 47.454583 24.241005 m 46.508490 22.393754 l s
1.000000 1.000000 1.000000 srgb
n 50.822390 25.552615 1.449370 1.322839 0 360 ellipse f
0.100000 slw
[] 0 sd
[] 0 sd
0 slj
0.000000 0.000000 0.000000 srgb
n 50.822390 25.552615 1.449370 1.322839 0 360 ellipse cp s
gsave 50.457390 25.902565 translate 0.035278 -0.035278 scale
start_ol
2750 5696 moveto
2081 5696 1744 5056 conicto
1408 4417 1408 3134 conicto
1408 1855 1744 1215 conicto
2081 576 2750 576 conicto
3423 576 3759 1215 conicto
4096 1855 4096 3134 conicto
4096 4417 3759 5056 conicto
3423 5696 2750 5696 conicto
2752 6400 moveto
3810 6400 4369 5563 conicto
4928 4727 4928 3134 conicto
4928 1545 4369 708 conicto
3810 -128 2752 -128 conicto
1694 -128 1135 708 conicto
576 1545 576 3134 conicto
576 4727 1135 5563 conicto
1694 6400 2752 6400 conicto
end_ol grestore 
1.000000 1.000000 1.000000 srgb
n 54.001283 25.558660 1.366430 1.352355 0 360 ellipse f
0.100000 slw
[] 0 sd
[] 0 sd
0 slj
0.000000 0.000000 0.000000 srgb
n 54.001283 25.558660 1.366430 1.352355 0 360 ellipse cp s
gsave 53.636283 25.908610 translate 0.035278 -0.035278 scale
start_ol
896 6272 moveto
4288 6272 lineto
4288 5568 lineto
1728 5568 lineto
1728 4036 lineto
1912 4098 2096 4129 conicto
2281 4160 2465 4160 conicto
3513 4160 4124 3582 conicto
4736 3004 4736 2016 conicto
4736 999 4100 435 conicto
3464 -128 2306 -128 conicto
1908 -128 1494 -64 conicto
1081 0 640 128 conicto
640 960 lineto
1025 766 1435 671 conicto
1845 576 2302 576 conicto
3041 576 3472 963 conicto
3904 1351 3904 2016 conicto
3904 2681 3470 3068 conicto
3037 3456 2295 3456 conicto
1947 3456 1601 3378 conicto
1256 3300 896 3136 conicto
896 6272 lineto
end_ol grestore 
0.100000 slw
[] 0 sd
[] 0 sd
0 slc
n 50.822390 24.229776 m 53.197876 22.409689 l s
0.100000 slw
[] 0 sd
[] 0 sd
0 slc
n 54.001283 24.206305 m 53.197876 22.409689 l s
1.000000 1.000000 1.000000 srgb
n 57.194890 25.595015 1.449370 1.322839 0 360 ellipse f
0.100000 slw
[] 0 sd
[] 0 sd
0 slj
0.000000 0.000000 0.000000 srgb
n 57.194890 25.595015 1.449370 1.322839 0 360 ellipse cp s
gsave 56.829890 25.944965 translate 0.035278 -0.035278 scale
start_ol
2750 5696 moveto
2081 5696 1744 5056 conicto
1408 4417 1408 3134 conicto
1408 1855 1744 1215 conicto
2081 576 2750 576 conicto
3423 576 3759 1215 conicto
4096 1855 4096 3134 conicto
4096 4417 3759 5056 conicto
3423 5696 2750 5696 conicto
2752 6400 moveto
3810 6400 4369 5563 conicto
4928 4727 4928 3134 conicto
4928 1545 4369 708 conicto
3810 -128 2752 -128 conicto
1694 -128 1135 708 conicto
576 1545 576 3134 conicto
576 4727 1135 5563 conicto
1694 6400 2752 6400 conicto
end_ol grestore 
1.000000 1.000000 1.000000 srgb
n 59.695576 25.559835 1.374227 1.350854 0 360 ellipse f
0.100000 slw
[] 0 sd
[] 0 sd
0 slj
0.000000 0.000000 0.000000 srgb
n 59.695576 25.559835 1.374227 1.350854 0 360 ellipse cp s
gsave 59.330576 25.909785 translate 0.035278 -0.035278 scale
start_ol
1689 704 moveto
4642 704 lineto
4642 0 lineto
640 0 lineto
640 704 lineto
1129 1207 1974 2055 conicto
2819 2904 3036 3149 conicto
3448 3610 3612 3929 conicto
3776 4249 3776 4558 conicto
3776 5061 3423 5378 conicto
3070 5696 2504 5696 conicto
2103 5696 1657 5553 conicto
1211 5410 704 5120 conicto
704 5952 lineto
1216 6174 1661 6287 conicto
2106 6400 2475 6400 conicto
3449 6400 4028 5910 conicto
4608 5421 4608 4603 conicto
4608 4214 4463 3866 conicto
4319 3518 3938 3046 conicto
3833 2923 3272 2339 conicto
2711 1755 1689 704 conicto
end_ol grestore 
1.000000 1.000000 1.000000 srgb
n 62.420183 25.539560 1.366430 1.352355 0 360 ellipse f
0.100000 slw
[] 0 sd
[] 0 sd
0 slj
0.000000 0.000000 0.000000 srgb
n 62.420183 25.539560 1.366430 1.352355 0 360 ellipse cp s
gsave 62.055183 25.889510 translate 0.035278 -0.035278 scale
start_ol
896 6272 moveto
4288 6272 lineto
4288 5568 lineto
1728 5568 lineto
1728 4036 lineto
1912 4098 2096 4129 conicto
2281 4160 2465 4160 conicto
3513 4160 4124 3582 conicto
4736 3004 4736 2016 conicto
4736 999 4100 435 conicto
3464 -128 2306 -128 conicto
1908 -128 1494 -64 conicto
1081 0 640 128 conicto
640 960 lineto
1025 766 1435 671 conicto
1845 576 2302 576 conicto
3041 576 3472 963 conicto
3904 1351 3904 2016 conicto
3904 2681 3470 3068 conicto
3037 3456 2295 3456 conicto
1947 3456 1601 3378 conicto
1256 3300 896 3136 conicto
896 6272 lineto
end_ol grestore 
0.100000 slw
[] 0 sd
[] 0 sd
0 slc
n 57.194890 24.272176 m 59.750790 22.356454 l s
0.100000 slw
[] 0 sd
[] 0 sd
0 slc
n 59.718007 24.258462 m 59.750790 22.356454 l s
0.100000 slw
[] 0 sd
[] 0 sd
0 slc
n 62.420183 24.187205 m 59.750790 22.356454 l s
gsave -10.034460 14.807300 translate 0.035278 -0.035278 scale
start_ol
1216 9408 moveto
3152 9408 lineto
5533 2992 lineto
7926 9408 lineto
9856 9408 lineto
9856 0 lineto
8576 0 lineto
8576 8259 lineto
6170 1792 lineto
4902 1792 lineto
2496 8259 lineto
2496 0 lineto
1216 0 lineto
1216 9408 lineto
end_ol grestore 
gsave -8.558341 14.807300 translate 0.035278 -0.035278 scale
start_ol
7232 3824 moveto
7232 3264 lineto
1920 3264 lineto
1996 2045 2641 1406 conicto
3286 768 4439 768 conicto
5106 768 5732 928 conicto
6359 1088 6976 1408 conicto
6976 320 lineto
6352 70 5696 -61 conicto
5041 -192 4366 -192 conicto
2677 -192 1690 793 conicto
704 1778 704 3457 conicto
704 5193 1638 6212 conicto
2572 7232 4157 7232 conicto
5578 7232 6405 6315 conicto
7232 5399 7232 3824 conicto
6080 4160 moveto
6067 5123 5549 5697 conicto
5031 6272 4176 6272 conicto
3208 6272 2627 5717 conicto
2046 5162 1958 4154 conicto
6080 4160 lineto
end_ol grestore 
gsave -7.506829 14.807300 translate 0.035278 -0.035278 scale
start_ol
4413 3584 moveto
3006 3584 2463 3256 conicto
1920 2928 1920 2137 conicto
1920 1507 2327 1137 conicto
2734 768 3435 768 conicto
4400 768 4984 1466 conicto
5568 2165 5568 3324 conicto
5568 3584 lineto
4413 3584 lineto
6720 4057 moveto
6720 0 lineto
5568 0 lineto
5568 1088 lineto
5171 432 4579 120 conicto
3987 -192 3130 -192 conicto
2047 -192 1407 420 conicto
768 1033 768 2061 conicto
768 3261 1564 3870 conicto
2360 4480 3940 4480 conicto
5568 4480 lineto
5568 4594 lineto
5568 5395 5041 5833 conicto
4515 6272 3563 6272 conicto
2957 6272 2383 6128 conicto
1810 5984 1280 5696 conicto
1280 6784 lineto
1916 7008 2514 7120 conicto
3112 7232 3679 7232 conicto
5209 7232 5964 6444 conicto
6720 5657 6720 4057 conicto
end_ol grestore 
gsave -6.457814 14.807300 translate 0.035278 -0.035278 scale
start_ol
5760 6848 moveto
5760 5760 lineto
5269 6016 4740 6144 conicto
4211 6272 3645 6272 conicto
2782 6272 2351 6004 conicto
1920 5736 1920 5199 conicto
1920 4791 2233 4558 conicto
2546 4325 3491 4114 conicto
3893 4024 lineto
5115 3760 5629 3278 conicto
6144 2797 6144 1935 conicto
6144 953 5359 380 conicto
4574 -192 3202 -192 conicto
2630 -192 2010 -96 conicto
1390 0 704 192 conicto
704 1408 lineto
1360 1088 1996 928 conicto
2633 768 3256 768 conicto
4092 768 4542 1047 conicto
4992 1327 4992 1836 conicto
4992 2307 4669 2558 conicto
4347 2810 3255 3042 conicto
2846 3137 lineto
1746 3366 1257 3839 conicto
768 4312 768 5137 conicto
768 6140 1477 6686 conicto
2187 7232 3492 7232 conicto
4138 7232 4708 7136 conicto
5279 7040 5760 6848 conicto
end_ol grestore 
gsave -5.566152 14.807300 translate 0.035278 -0.035278 scale
start_ol
1088 2783 moveto
1088 7040 lineto
2240 7040 lineto
2240 2827 lineto
2240 1830 2637 1331 conicto
3034 832 3827 832 conicto
4781 832 5334 1428 conicto
5888 2024 5888 3053 conicto
5888 7040 lineto
7040 7040 lineto
7040 0 lineto
5888 0 lineto
5888 1088 lineto
5461 438 4898 123 conicto
4335 -192 3590 -192 conicto
2361 -192 1724 566 conicto
1088 1324 1088 2783 conicto
4026 7232 moveto
4026 7232 lineto
end_ol grestore 
gsave -4.482170 14.807300 translate 0.035278 -0.035278 scale
start_ol
5312 5952 moveto
5114 6084 4881 6146 conicto
4648 6208 4367 6208 conicto
3371 6208 2837 5563 conicto
2304 4919 2304 3712 conicto
2304 0 lineto
1152 0 lineto
1152 7040 lineto
2304 7040 lineto
2304 5952 lineto
2674 6602 3268 6917 conicto
3862 7232 4712 7232 conicto
4833 7232 4980 7216 conicto
5127 7200 5306 7168 conicto
5312 5952 lineto
end_ol grestore 
gsave -3.815296 14.807300 translate 0.035278 -0.035278 scale
start_ol
7232 3824 moveto
7232 3264 lineto
1920 3264 lineto
1996 2045 2641 1406 conicto
3286 768 4439 768 conicto
5106 768 5732 928 conicto
6359 1088 6976 1408 conicto
6976 320 lineto
6352 70 5696 -61 conicto
5041 -192 4366 -192 conicto
2677 -192 1690 793 conicto
704 1778 704 3457 conicto
704 5193 1638 6212 conicto
2572 7232 4157 7232 conicto
5578 7232 6405 6315 conicto
7232 5399 7232 3824 conicto
6080 4160 moveto
6067 5123 5549 5697 conicto
5031 6272 4176 6272 conicto
3208 6272 2627 5717 conicto
2046 5162 1958 4154 conicto
6080 4160 lineto
end_ol grestore 
gsave -2.763784 14.807300 translate 0.035278 -0.035278 scale
start_ol
6719 5694 moveto
7157 6482 7766 6857 conicto
8376 7232 9202 7232 conicto
10313 7232 10916 6457 conicto
11520 5682 11520 4253 conicto
11520 0 lineto
10368 0 lineto
10368 4215 lineto
10368 5227 10003 5717 conicto
9638 6208 8890 6208 conicto
7974 6208 7443 5611 conicto
6912 5014 6912 3983 conicto
6912 0 lineto
5760 0 lineto
5760 4215 lineto
5760 5234 5395 5721 conicto
5030 6208 4269 6208 conicto
3366 6208 2835 5608 conicto
2304 5008 2304 3983 conicto
2304 0 lineto
1152 0 lineto
1152 7040 lineto
2304 7040 lineto
2304 5952 lineto
2705 6608 3264 6920 conicto
3824 7232 4594 7232 conicto
5370 7232 5914 6838 conicto
6458 6444 6719 5694 conicto
end_ol grestore 
gsave -1.097844 14.807300 translate 0.035278 -0.035278 scale
start_ol
7232 3824 moveto
7232 3264 lineto
1920 3264 lineto
1996 2045 2641 1406 conicto
3286 768 4439 768 conicto
5106 768 5732 928 conicto
6359 1088 6976 1408 conicto
6976 320 lineto
6352 70 5696 -61 conicto
5041 -192 4366 -192 conicto
2677 -192 1690 793 conicto
704 1778 704 3457 conicto
704 5193 1638 6212 conicto
2572 7232 4157 7232 conicto
5578 7232 6405 6315 conicto
7232 5399 7232 3824 conicto
6080 4160 moveto
6067 5123 5549 5697 conicto
5031 6272 4176 6272 conicto
3208 6272 2627 5717 conicto
2046 5162 1958 4154 conicto
6080 4160 lineto
end_ol grestore 
gsave -0.046332 14.807300 translate 0.035278 -0.035278 scale
start_ol
7104 4253 moveto
7104 0 lineto
5952 0 lineto
5952 4215 lineto
5952 5215 5554 5711 conicto
5157 6208 4362 6208 conicto
3407 6208 2855 5611 conicto
2304 5014 2304 3983 conicto
2304 0 lineto
1152 0 lineto
1152 7040 lineto
2304 7040 lineto
2304 5952 lineto
2725 6595 3295 6913 conicto
3866 7232 4612 7232 conicto
5842 7232 6473 6476 conicto
7104 5720 7104 4253 conicto
end_ol grestore 
gsave 1.037650 14.807300 translate 0.035278 -0.035278 scale
start_ol
2368 9024 moveto
2368 7040 lineto
4736 7040 lineto
4736 6144 lineto
2368 6144 lineto
2368 2314 lineto
2368 1451 2602 1205 conicto
2837 960 3555 960 conicto
4736 960 lineto
4736 0 lineto
3555 0 lineto
2226 0 1721 498 conicto
1216 997 1216 2314 conicto
1216 6144 lineto
384 6144 lineto
384 7040 lineto
1216 7040 lineto
1216 9024 lineto
2368 9024 lineto
end_ol grestore 
gsave 1.709518 14.807300 translate 0.035278 -0.035278 scale
start_ol
end_ol grestore 
gsave 2.254005 14.807300 translate 0.035278 -0.035278 scale
start_ol
1600 1088 moveto
3712 1088 lineto
3712 8256 lineto
1472 7808 lineto
1472 8960 lineto
3720 9408 lineto
4992 9408 lineto
4992 1088 lineto
7104 1088 lineto
7104 0 lineto
1600 0 lineto
1600 1088 lineto
end_ol grestore 
gsave -15.487700 18.968300 translate 0.035278 -0.035278 scale
start_ol
1216 9408 moveto
3152 9408 lineto
5533 2992 lineto
7926 9408 lineto
9856 9408 lineto
9856 0 lineto
8576 0 lineto
8576 8259 lineto
6170 1792 lineto
4902 1792 lineto
2496 8259 lineto
2496 0 lineto
1216 0 lineto
1216 9408 lineto
end_ol grestore 
gsave -14.011581 18.968300 translate 0.035278 -0.035278 scale
start_ol
7232 3824 moveto
7232 3264 lineto
1920 3264 lineto
1996 2045 2641 1406 conicto
3286 768 4439 768 conicto
5106 768 5732 928 conicto
6359 1088 6976 1408 conicto
6976 320 lineto
6352 70 5696 -61 conicto
5041 -192 4366 -192 conicto
2677 -192 1690 793 conicto
704 1778 704 3457 conicto
704 5193 1638 6212 conicto
2572 7232 4157 7232 conicto
5578 7232 6405 6315 conicto
7232 5399 7232 3824 conicto
6080 4160 moveto
6067 5123 5549 5697 conicto
5031 6272 4176 6272 conicto
3208 6272 2627 5717 conicto
2046 5162 1958 4154 conicto
6080 4160 lineto
end_ol grestore 
gsave -12.960069 18.968300 translate 0.035278 -0.035278 scale
start_ol
4413 3584 moveto
3006 3584 2463 3256 conicto
1920 2928 1920 2137 conicto
1920 1507 2327 1137 conicto
2734 768 3435 768 conicto
4400 768 4984 1466 conicto
5568 2165 5568 3324 conicto
5568 3584 lineto
4413 3584 lineto
6720 4057 moveto
6720 0 lineto
5568 0 lineto
5568 1088 lineto
5171 432 4579 120 conicto
3987 -192 3130 -192 conicto
2047 -192 1407 420 conicto
768 1033 768 2061 conicto
768 3261 1564 3870 conicto
2360 4480 3940 4480 conicto
5568 4480 lineto
5568 4594 lineto
5568 5395 5041 5833 conicto
4515 6272 3563 6272 conicto
2957 6272 2383 6128 conicto
1810 5984 1280 5696 conicto
1280 6784 lineto
1916 7008 2514 7120 conicto
3112 7232 3679 7232 conicto
5209 7232 5964 6444 conicto
6720 5657 6720 4057 conicto
end_ol grestore 
gsave -11.911054 18.968300 translate 0.035278 -0.035278 scale
start_ol
5760 6848 moveto
5760 5760 lineto
5269 6016 4740 6144 conicto
4211 6272 3645 6272 conicto
2782 6272 2351 6004 conicto
1920 5736 1920 5199 conicto
1920 4791 2233 4558 conicto
2546 4325 3491 4114 conicto
3893 4024 lineto
5115 3760 5629 3278 conicto
6144 2797 6144 1935 conicto
6144 953 5359 380 conicto
4574 -192 3202 -192 conicto
2630 -192 2010 -96 conicto
1390 0 704 192 conicto
704 1408 lineto
1360 1088 1996 928 conicto
2633 768 3256 768 conicto
4092 768 4542 1047 conicto
4992 1327 4992 1836 conicto
4992 2307 4669 2558 conicto
4347 2810 3255 3042 conicto
2846 3137 lineto
1746 3366 1257 3839 conicto
768 4312 768 5137 conicto
768 6140 1477 6686 conicto
2187 7232 3492 7232 conicto
4138 7232 4708 7136 conicto
5279 7040 5760 6848 conicto
end_ol grestore 
gsave -11.019392 18.968300 translate 0.035278 -0.035278 scale
start_ol
1088 2783 moveto
1088 7040 lineto
2240 7040 lineto
2240 2827 lineto
2240 1830 2637 1331 conicto
3034 832 3827 832 conicto
4781 832 5334 1428 conicto
5888 2024 5888 3053 conicto
5888 7040 lineto
7040 7040 lineto
7040 0 lineto
5888 0 lineto
5888 1088 lineto
5461 438 4898 123 conicto
4335 -192 3590 -192 conicto
2361 -192 1724 566 conicto
1088 1324 1088 2783 conicto
4026 7232 moveto
4026 7232 lineto
end_ol grestore 
gsave -9.935410 18.968300 translate 0.035278 -0.035278 scale
start_ol
5312 5952 moveto
5114 6084 4881 6146 conicto
4648 6208 4367 6208 conicto
3371 6208 2837 5563 conicto
2304 4919 2304 3712 conicto
2304 0 lineto
1152 0 lineto
1152 7040 lineto
2304 7040 lineto
2304 5952 lineto
2674 6602 3268 6917 conicto
3862 7232 4712 7232 conicto
4833 7232 4980 7216 conicto
5127 7200 5306 7168 conicto
5312 5952 lineto
end_ol grestore 
gsave -9.268536 18.968300 translate 0.035278 -0.035278 scale
start_ol
7232 3824 moveto
7232 3264 lineto
1920 3264 lineto
1996 2045 2641 1406 conicto
3286 768 4439 768 conicto
5106 768 5732 928 conicto
6359 1088 6976 1408 conicto
6976 320 lineto
6352 70 5696 -61 conicto
5041 -192 4366 -192 conicto
2677 -192 1690 793 conicto
704 1778 704 3457 conicto
704 5193 1638 6212 conicto
2572 7232 4157 7232 conicto
5578 7232 6405 6315 conicto
7232 5399 7232 3824 conicto
6080 4160 moveto
6067 5123 5549 5697 conicto
5031 6272 4176 6272 conicto
3208 6272 2627 5717 conicto
2046 5162 1958 4154 conicto
6080 4160 lineto
end_ol grestore 
gsave -8.217024 18.968300 translate 0.035278 -0.035278 scale
start_ol
6719 5694 moveto
7157 6482 7766 6857 conicto
8376 7232 9202 7232 conicto
10313 7232 10916 6457 conicto
11520 5682 11520 4253 conicto
11520 0 lineto
10368 0 lineto
10368 4215 lineto
10368 5227 10003 5717 conicto
9638 6208 8890 6208 conicto
7974 6208 7443 5611 conicto
6912 5014 6912 3983 conicto
6912 0 lineto
5760 0 lineto
5760 4215 lineto
5760 5234 5395 5721 conicto
5030 6208 4269 6208 conicto
3366 6208 2835 5608 conicto
2304 5008 2304 3983 conicto
2304 0 lineto
1152 0 lineto
1152 7040 lineto
2304 7040 lineto
2304 5952 lineto
2705 6608 3264 6920 conicto
3824 7232 4594 7232 conicto
5370 7232 5914 6838 conicto
6458 6444 6719 5694 conicto
end_ol grestore 
gsave -6.551084 18.968300 translate 0.035278 -0.035278 scale
start_ol
7232 3824 moveto
7232 3264 lineto
1920 3264 lineto
1996 2045 2641 1406 conicto
3286 768 4439 768 conicto
5106 768 5732 928 conicto
6359 1088 6976 1408 conicto
6976 320 lineto
6352 70 5696 -61 conicto
5041 -192 4366 -192 conicto
2677 -192 1690 793 conicto
704 1778 704 3457 conicto
704 5193 1638 6212 conicto
2572 7232 4157 7232 conicto
5578 7232 6405 6315 conicto
7232 5399 7232 3824 conicto
6080 4160 moveto
6067 5123 5549 5697 conicto
5031 6272 4176 6272 conicto
3208 6272 2627 5717 conicto
2046 5162 1958 4154 conicto
6080 4160 lineto
end_ol grestore 
gsave -5.499572 18.968300 translate 0.035278 -0.035278 scale
start_ol
7104 4253 moveto
7104 0 lineto
5952 0 lineto
5952 4215 lineto
5952 5215 5554 5711 conicto
5157 6208 4362 6208 conicto
3407 6208 2855 5611 conicto
2304 5014 2304 3983 conicto
2304 0 lineto
1152 0 lineto
1152 7040 lineto
2304 7040 lineto
2304 5952 lineto
2725 6595 3295 6913 conicto
3866 7232 4612 7232 conicto
5842 7232 6473 6476 conicto
7104 5720 7104 4253 conicto
end_ol grestore 
gsave -4.415590 18.968300 translate 0.035278 -0.035278 scale
start_ol
2368 9024 moveto
2368 7040 lineto
4736 7040 lineto
4736 6144 lineto
2368 6144 lineto
2368 2314 lineto
2368 1451 2602 1205 conicto
2837 960 3555 960 conicto
4736 960 lineto
4736 0 lineto
3555 0 lineto
2226 0 1721 498 conicto
1216 997 1216 2314 conicto
1216 6144 lineto
384 6144 lineto
384 7040 lineto
1216 7040 lineto
1216 9024 lineto
2368 9024 lineto
end_ol grestore 
gsave -3.743722 18.968300 translate 0.035278 -0.035278 scale
start_ol
end_ol grestore 
gsave -3.199235 18.968300 translate 0.035278 -0.035278 scale
start_ol
2501 1088 moveto
6963 1088 lineto
6963 0 lineto
960 0 lineto
960 1088 lineto
1689 1837 2947 3098 conicto
4206 4360 4529 4724 conicto
5144 5410 5388 5885 conicto
5632 6360 5632 6820 conicto
5632 7568 5102 8040 conicto
4573 8512 3724 8512 conicto
3122 8512 2453 8305 conicto
1785 8099 1024 7680 conicto
1024 8960 lineto
1796 9277 2467 9438 conicto
3139 9600 3696 9600 conicto
5165 9600 6038 8868 conicto
6912 8137 6912 6914 conicto
6912 6334 6693 5814 conicto
6475 5294 5899 4587 conicto
5741 4405 4893 3531 conicto
4045 2658 2501 1088 conicto
end_ol grestore 
gsave -17.365300 23.566200 translate 0.035278 -0.035278 scale
start_ol
1216 9408 moveto
3152 9408 lineto
5533 2992 lineto
7926 9408 lineto
9856 9408 lineto
9856 0 lineto
8576 0 lineto
8576 8259 lineto
6170 1792 lineto
4902 1792 lineto
2496 8259 lineto
2496 0 lineto
1216 0 lineto
1216 9408 lineto
end_ol grestore 
gsave -15.889181 23.566200 translate 0.035278 -0.035278 scale
start_ol
7232 3824 moveto
7232 3264 lineto
1920 3264 lineto
1996 2045 2641 1406 conicto
3286 768 4439 768 conicto
5106 768 5732 928 conicto
6359 1088 6976 1408 conicto
6976 320 lineto
6352 70 5696 -61 conicto
5041 -192 4366 -192 conicto
2677 -192 1690 793 conicto
704 1778 704 3457 conicto
704 5193 1638 6212 conicto
2572 7232 4157 7232 conicto
5578 7232 6405 6315 conicto
7232 5399 7232 3824 conicto
6080 4160 moveto
6067 5123 5549 5697 conicto
5031 6272 4176 6272 conicto
3208 6272 2627 5717 conicto
2046 5162 1958 4154 conicto
6080 4160 lineto
end_ol grestore 
gsave -14.837669 23.566200 translate 0.035278 -0.035278 scale
start_ol
4413 3584 moveto
3006 3584 2463 3256 conicto
1920 2928 1920 2137 conicto
1920 1507 2327 1137 conicto
2734 768 3435 768 conicto
4400 768 4984 1466 conicto
5568 2165 5568 3324 conicto
5568 3584 lineto
4413 3584 lineto
6720 4057 moveto
6720 0 lineto
5568 0 lineto
5568 1088 lineto
5171 432 4579 120 conicto
3987 -192 3130 -192 conicto
2047 -192 1407 420 conicto
768 1033 768 2061 conicto
768 3261 1564 3870 conicto
2360 4480 3940 4480 conicto
5568 4480 lineto
5568 4594 lineto
5568 5395 5041 5833 conicto
4515 6272 3563 6272 conicto
2957 6272 2383 6128 conicto
1810 5984 1280 5696 conicto
1280 6784 lineto
1916 7008 2514 7120 conicto
3112 7232 3679 7232 conicto
5209 7232 5964 6444 conicto
6720 5657 6720 4057 conicto
end_ol grestore 
gsave -13.788654 23.566200 translate 0.035278 -0.035278 scale
start_ol
5760 6848 moveto
5760 5760 lineto
5269 6016 4740 6144 conicto
4211 6272 3645 6272 conicto
2782 6272 2351 6004 conicto
1920 5736 1920 5199 conicto
1920 4791 2233 4558 conicto
2546 4325 3491 4114 conicto
3893 4024 lineto
5115 3760 5629 3278 conicto
6144 2797 6144 1935 conicto
6144 953 5359 380 conicto
4574 -192 3202 -192 conicto
2630 -192 2010 -96 conicto
1390 0 704 192 conicto
704 1408 lineto
1360 1088 1996 928 conicto
2633 768 3256 768 conicto
4092 768 4542 1047 conicto
4992 1327 4992 1836 conicto
4992 2307 4669 2558 conicto
4347 2810 3255 3042 conicto
2846 3137 lineto
1746 3366 1257 3839 conicto
768 4312 768 5137 conicto
768 6140 1477 6686 conicto
2187 7232 3492 7232 conicto
4138 7232 4708 7136 conicto
5279 7040 5760 6848 conicto
end_ol grestore 
gsave -12.896992 23.566200 translate 0.035278 -0.035278 scale
start_ol
1088 2783 moveto
1088 7040 lineto
2240 7040 lineto
2240 2827 lineto
2240 1830 2637 1331 conicto
3034 832 3827 832 conicto
4781 832 5334 1428 conicto
5888 2024 5888 3053 conicto
5888 7040 lineto
7040 7040 lineto
7040 0 lineto
5888 0 lineto
5888 1088 lineto
5461 438 4898 123 conicto
4335 -192 3590 -192 conicto
2361 -192 1724 566 conicto
1088 1324 1088 2783 conicto
4026 7232 moveto
4026 7232 lineto
end_ol grestore 
gsave -11.813010 23.566200 translate 0.035278 -0.035278 scale
start_ol
5312 5952 moveto
5114 6084 4881 6146 conicto
4648 6208 4367 6208 conicto
3371 6208 2837 5563 conicto
2304 4919 2304 3712 conicto
2304 0 lineto
1152 0 lineto
1152 7040 lineto
2304 7040 lineto
2304 5952 lineto
2674 6602 3268 6917 conicto
3862 7232 4712 7232 conicto
4833 7232 4980 7216 conicto
5127 7200 5306 7168 conicto
5312 5952 lineto
end_ol grestore 
gsave -11.146136 23.566200 translate 0.035278 -0.035278 scale
start_ol
7232 3824 moveto
7232 3264 lineto
1920 3264 lineto
1996 2045 2641 1406 conicto
3286 768 4439 768 conicto
5106 768 5732 928 conicto
6359 1088 6976 1408 conicto
6976 320 lineto
6352 70 5696 -61 conicto
5041 -192 4366 -192 conicto
2677 -192 1690 793 conicto
704 1778 704 3457 conicto
704 5193 1638 6212 conicto
2572 7232 4157 7232 conicto
5578 7232 6405 6315 conicto
7232 5399 7232 3824 conicto
6080 4160 moveto
6067 5123 5549 5697 conicto
5031 6272 4176 6272 conicto
3208 6272 2627 5717 conicto
2046 5162 1958 4154 conicto
6080 4160 lineto
end_ol grestore 
gsave -10.094624 23.566200 translate 0.035278 -0.035278 scale
start_ol
6719 5694 moveto
7157 6482 7766 6857 conicto
8376 7232 9202 7232 conicto
10313 7232 10916 6457 conicto
11520 5682 11520 4253 conicto
11520 0 lineto
10368 0 lineto
10368 4215 lineto
10368 5227 10003 5717 conicto
9638 6208 8890 6208 conicto
7974 6208 7443 5611 conicto
6912 5014 6912 3983 conicto
6912 0 lineto
5760 0 lineto
5760 4215 lineto
5760 5234 5395 5721 conicto
5030 6208 4269 6208 conicto
3366 6208 2835 5608 conicto
2304 5008 2304 3983 conicto
2304 0 lineto
1152 0 lineto
1152 7040 lineto
2304 7040 lineto
2304 5952 lineto
2705 6608 3264 6920 conicto
3824 7232 4594 7232 conicto
5370 7232 5914 6838 conicto
6458 6444 6719 5694 conicto
end_ol grestore 
gsave -8.428684 23.566200 translate 0.035278 -0.035278 scale
start_ol
7232 3824 moveto
7232 3264 lineto
1920 3264 lineto
1996 2045 2641 1406 conicto
3286 768 4439 768 conicto
5106 768 5732 928 conicto
6359 1088 6976 1408 conicto
6976 320 lineto
6352 70 5696 -61 conicto
5041 -192 4366 -192 conicto
2677 -192 1690 793 conicto
704 1778 704 3457 conicto
704 5193 1638 6212 conicto
2572 7232 4157 7232 conicto
5578 7232 6405 6315 conicto
7232 5399 7232 3824 conicto
6080 4160 moveto
6067 5123 5549 5697 conicto
5031 6272 4176 6272 conicto
3208 6272 2627 5717 conicto
2046 5162 1958 4154 conicto
6080 4160 lineto
end_ol grestore 
gsave -7.377172 23.566200 translate 0.035278 -0.035278 scale
start_ol
7104 4253 moveto
7104 0 lineto
5952 0 lineto
5952 4215 lineto
5952 5215 5554 5711 conicto
5157 6208 4362 6208 conicto
3407 6208 2855 5611 conicto
2304 5014 2304 3983 conicto
2304 0 lineto
1152 0 lineto
1152 7040 lineto
2304 7040 lineto
2304 5952 lineto
2725 6595 3295 6913 conicto
3866 7232 4612 7232 conicto
5842 7232 6473 6476 conicto
7104 5720 7104 4253 conicto
end_ol grestore 
gsave -6.293190 23.566200 translate 0.035278 -0.035278 scale
start_ol
2368 9024 moveto
2368 7040 lineto
4736 7040 lineto
4736 6144 lineto
2368 6144 lineto
2368 2314 lineto
2368 1451 2602 1205 conicto
2837 960 3555 960 conicto
4736 960 lineto
4736 0 lineto
3555 0 lineto
2226 0 1721 498 conicto
1216 997 1216 2314 conicto
1216 6144 lineto
384 6144 lineto
384 7040 lineto
1216 7040 lineto
1216 9024 lineto
2368 9024 lineto
end_ol grestore 
gsave -5.621322 23.566200 translate 0.035278 -0.035278 scale
start_ol
end_ol grestore 
gsave -5.076835 23.566200 translate 0.035278 -0.035278 scale
start_ol
5234 5099 moveto
6144 4902 6656 4280 conicto
7168 3659 7168 2745 conicto
7168 1343 6208 575 conicto
5248 -192 3480 -192 conicto
2886 -192 2257 -80 conicto
1629 32 960 256 conicto
960 1472 lineto
1489 1187 2119 1041 conicto
2750 896 3437 896 conicto
4634 896 5261 1372 conicto
5888 1849 5888 2758 conicto
5888 3597 5303 4070 conicto
4719 4544 3676 4544 conicto
2560 4544 lineto
2560 5568 lineto
3727 5568 lineto
4683 5568 5189 5941 conicto
5696 6315 5696 7018 conicto
5696 7740 5173 8126 conicto
4651 8512 3676 8512 conicto
3148 8512 2544 8403 conicto
1941 8294 1216 8064 conicto
1216 9216 lineto
1950 9408 2591 9504 conicto
3232 9600 3799 9600 conicto
5266 9600 6121 8942 conicto
6976 8284 6976 7164 conicto
6976 6383 6523 5845 conicto
6070 5307 5234 5099 conicto
end_ol grestore 
showpage
